1#001#Anang    #0#0#78#52#47#
2#002#Ashanti  #0#0#82#34#68#
3#003#Dhani    #0#0#31#62#92#
4#004#Tulus    #0#0#62#45#68#
5#005#Skrillex #0#0#41#19#61#
6#006#Alan     #0#0#81#62#38#
7#007#Suryajana#0#0#93#63#49#
8#008#Ewing    #0#0#61#77#13#
9#009#PewDiePie#0#0#62#54#87#
10#010#TSeries  #0#0#56#63#53#